%YAML 1.1
%TAG !u! tag:unity3d.com,2011:
--- !u!114 &11400000
MonoBehaviour:
  m_ObjectHideFlags: 0
  m_CorrespondingSourceObject: {fileID: 0}
  m_PrefabInternal: {fileID: 0}
  m_GameObject: {fileID: 0}
  m_Enabled: 1
  m_EditorHideFlags: 0
  m_Script: {fileID: 11500000, guid: b038584523e7d5d429efe246491a8457, type: 3}
  m_Name: Energy Gun L
  m_EditorClassIdentifier: 
  size: 2.2
  isMelee: 0
  weaponSprite: {fileID: 21300022, guid: e340e63f6c6bc974e8a6d0f8a31e4221, type: 3}
  name: Energy Gun L
  rarity: 3
  damage: 15
  criticChance: 33
  criticDamage: 17
  ammo: {fileID: 1462716530431096, guid: caf17342436791d4ab673925a1df30e0, type: 2}
  fireRate: 0.7
  maxAmmo: 30
  curAmmo: 0
  reloadTime: 0.75
