%YAML 1.1
%TAG !u! tag:unity3d.com,2011:
--- !u!114 &11400000
MonoBehaviour:
  m_ObjectHideFlags: 0
  m_CorrespondingSourceObject: {fileID: 0}
  m_PrefabInternal: {fileID: 0}
  m_GameObject: {fileID: 0}
  m_Enabled: 1
  m_EditorHideFlags: 0
  m_Script: {fileID: 11500000, guid: b038584523e7d5d429efe246491a8457, type: 3}
  m_Name: Pistol L
  m_EditorClassIdentifier: 
  size: 2.4
  isMelee: 0
  weaponSprite: {fileID: 21300016, guid: 386fc284b2a7e77499780b7d1fe14cd9, type: 3}
  name: Pistol L
  rarity: 3
  damage: 9
  criticChance: 7
  criticDamage: 10
  ammo: {fileID: 1462716530431096, guid: 31c27a5860be3134aa522270848663d5, type: 2}
  fireRate: 0.4
  maxAmmo: 15
  curAmmo: 0
  reloadTime: 0.35
