%YAML 1.1
%TAG !u! tag:unity3d.com,2011:
--- !u!1001 &100100000
Prefab:
  m_ObjectHideFlags: 1
  serializedVersion: 2
  m_Modification:
    m_TransformParent: {fileID: 0}
    m_Modifications: []
    m_RemovedComponents: []
  m_SourcePrefab: {fileID: 0}
  m_RootGameObject: {fileID: 1674516096554530}
  m_IsPrefabAsset: 1
--- !u!1 &1674516096554530
GameObject:
  m_ObjectHideFlags: 0
  m_CorrespondingSourceObject: {fileID: 0}
  m_PrefabInternal: {fileID: 100100000}
  serializedVersion: 6
  m_Component:
  - component: {fileID: 4059683859009646}
  - component: {fileID: 114447829115840182}
  m_Layer: 0
  m_Name: Player Class Manager
  m_TagString: Untagged
  m_Icon: {fileID: 0}
  m_NavMeshLayer: 0
  m_StaticEditorFlags: 0
  m_IsActive: 1
--- !u!4 &4059683859009646
Transform:
  m_ObjectHideFlags: 1
  m_CorrespondingSourceObject: {fileID: 0}
  m_PrefabInternal: {fileID: 100100000}
  m_GameObject: {fileID: 1674516096554530}
  m_LocalRotation: {x: 0, y: 0, z: 0, w: 1}
  m_LocalPosition: {x: 0, y: 0, z: 0}
  m_LocalScale: {x: 1, y: 1, z: 1}
  m_Children: []
  m_Father: {fileID: 0}
  m_RootOrder: 0
  m_LocalEulerAnglesHint: {x: 0, y: 0, z: 0}
--- !u!114 &114447829115840182
MonoBehaviour:
  m_ObjectHideFlags: 1
  m_CorrespondingSourceObject: {fileID: 0}
  m_PrefabInternal: {fileID: 100100000}
  m_GameObject: {fileID: 1674516096554530}
  m_Enabled: 1
  m_EditorHideFlags: 0
  m_Script: {fileID: 11500000, guid: 3095b34f786ddd744b8c38b4040c5256, type: 3}
  m_Name: 
  m_EditorClassIdentifier: 
  classes:
  - name: Warrior
    maxHp: 100
    maxMana: 80
    maxStamina: 120
    moveSpeed: 5
    ultimateManaUsage: 70
    ultimateDuration: 10
    ultimateDescription: Attack with swords deals more damage and you doesn't take
      damage.
    type: 0
  - name: Archer
    maxHp: 100
    maxMana: 100
    maxStamina: 100
    moveSpeed: 5
    ultimateManaUsage: 70
    ultimateDuration: 0
    ultimateDescription: Shoot 8 arrows at the same time in different directions.
    type: 1
  - name: Mage
    maxHp: 80
    maxMana: 150
    maxStamina: 80
    moveSpeed: 5
    ultimateManaUsage: 110
    ultimateDuration: 10
    ultimateDescription: Creates a magic circle that heals player and damage enemies.
    type: 2
  - name: Tank
    maxHp: 180
    maxMana: 50
    maxStamina: 130
    moveSpeed: 5
    ultimateManaUsage: 50
    ultimateDuration: 10
    ultimateDescription: All damage you take heals yourself (life can get higher than
      it maximum value).
    type: 3
