%YAML 1.1
%TAG !u! tag:unity3d.com,2011:
--- !u!114 &11400000
MonoBehaviour:
  m_ObjectHideFlags: 0
  m_CorrespondingSourceObject: {fileID: 0}
  m_PrefabInternal: {fileID: 0}
  m_GameObject: {fileID: 0}
  m_Enabled: 1
  m_EditorHideFlags: 0
  m_Script: {fileID: 11500000, guid: b038584523e7d5d429efe246491a8457, type: 3}
  m_Name: Bow R
  m_EditorClassIdentifier: 
  size: 1.5
  isMelee: 0
  weaponSprite: {fileID: 21300000, guid: 8067e40948ef3584ab290b95dd57e3de, type: 3}
  name: ' Bow R'
  rarity: 1
  damage: 5.5
  criticChance: 8
  criticDamage: 7
  ammo: {fileID: 1462716530431096, guid: 0bb7fd54ff61c4f4891fe1b4e31da163, type: 2}
  fireRate: 0.5
  maxAmmo: 25
  curAmmo: 25
  reloadTime: 0.6
