%YAML 1.1
%TAG !u! tag:unity3d.com,2011:
--- !u!114 &11400000
MonoBehaviour:
  m_ObjectHideFlags: 0
  m_CorrespondingSourceObject: {fileID: 0}
  m_PrefabInternal: {fileID: 0}
  m_GameObject: {fileID: 0}
  m_Enabled: 1
  m_EditorHideFlags: 0
  m_Script: {fileID: 11500000, guid: b038584523e7d5d429efe246491a8457, type: 3}
  m_Name: Wild West Pistol R
  m_EditorClassIdentifier: 
  size: 1
  isMelee: 0
  weaponSprite: {fileID: 21300000, guid: c4c2e8ee3fe1ce24db5f13d1c75d7a9a, type: 3}
  name: Wild West Pistol R
  rarity: 1
  damage: 12
  criticChance: 4
  criticDamage: 20
  ammo: {fileID: 1462716530431096, guid: 31c27a5860be3134aa522270848663d5, type: 2}
  fireRate: 0.65
  maxAmmo: 6
  curAmmo: 5
  reloadTime: 1.5
