%YAML 1.1
%TAG !u! tag:unity3d.com,2011:
--- !u!114 &11400000
MonoBehaviour:
  m_ObjectHideFlags: 0
  m_CorrespondingSourceObject: {fileID: 0}
  m_PrefabInternal: {fileID: 0}
  m_GameObject: {fileID: 0}
  m_Enabled: 1
  m_EditorHideFlags: 0
  m_Script: {fileID: 11500000, guid: b038584523e7d5d429efe246491a8457, type: 3}
  m_Name: Null Ranged
  m_EditorClassIdentifier: 
  size: 0
  isMelee: 0
  weaponSprite: {fileID: 0}
  name: Null Ranged
  rarity: 4
  damage: 0
  criticChance: 5
  criticDamage: 0
  ammo: {fileID: 0}
  fireRate: 0
  maxAmmo: 0
  curAmmo: 0
  reloadTime: 0
