%YAML 1.1
%TAG !u! tag:unity3d.com,2011:
--- !u!114 &11400000
MonoBehaviour:
  m_ObjectHideFlags: 0
  m_CorrespondingSourceObject: {fileID: 0}
  m_PrefabInternal: {fileID: 0}
  m_GameObject: {fileID: 0}
  m_Enabled: 1
  m_EditorHideFlags: 0
  m_Script: {fileID: 11500000, guid: 844d31a1bfc41c54e95f41a4d4ae9a7d, type: 3}
  m_Name: Candy Machine Boss
  m_EditorClassIdentifier: 
  name: Candy Machine
  speed: 2
  stopDistance: 2
  bossType: 6
  maxHp: 600
  minGoldQuant: 200
  maxGoldQuant: 560
  fireRate: 0.55
  stageOneBullet: {fileID: 1526762458163802, guid: 516c45c2720e8da4487144cd773fad30,
    type: 2}
  stageTwoBullet: {fileID: 1504377937226114, guid: 2025ed0219094dc4ea0c8d394f499663,
    type: 2}
  stageThreeBullet: {fileID: 1808182215676792, guid: f8dd2e46a365d7948bd348e0c31aefa5,
    type: 2}
