%YAML 1.1
%TAG !u! tag:unity3d.com,2011:
--- !u!114 &11400000
MonoBehaviour:
  m_ObjectHideFlags: 0
  m_CorrespondingSourceObject: {fileID: 0}
  m_PrefabInternal: {fileID: 0}
  m_GameObject: {fileID: 0}
  m_Enabled: 1
  m_EditorHideFlags: 0
  m_Script: {fileID: 11500000, guid: 51a869147f83f0441ab0ae77ce7f1c80, type: 3}
  m_Name: Donut
  m_EditorClassIdentifier: 
  name: Donut
  stackMaxQuant: 10
  useValue: 0
  type: 8
  price: 50
  image: {fileID: 21300000, guid: 32cfbd0a254ba7b4cae2d2e983b87de3, type: 3}
