%YAML 1.1
%TAG !u! tag:unity3d.com,2011:
--- !u!114 &11400000
MonoBehaviour:
  m_ObjectHideFlags: 0
  m_CorrespondingSourceObject: {fileID: 0}
  m_PrefabInternal: {fileID: 0}
  m_GameObject: {fileID: 0}
  m_Enabled: 1
  m_EditorHideFlags: 0
  m_Script: {fileID: 11500000, guid: b038584523e7d5d429efe246491a8457, type: 3}
  m_Name: Fire Bow C
  m_EditorClassIdentifier: 
  size: 1.5
  isMelee: 0
  weaponSprite: {fileID: 21300002, guid: 39c75e489f6a7b44e98ecc58cff26cae, type: 3}
  name: Fire Bow C
  rarity: 0
  damage: 10
  criticChance: 10
  criticDamage: 15
  ammo: {fileID: 1462716530431096, guid: 0bb7fd54ff61c4f4891fe1b4e31da163, type: 2}
  fireRate: 0.5
  maxAmmo: 30
  curAmmo: 22
  reloadTime: 0.6
