%YAML 1.1
%TAG !u! tag:unity3d.com,2011:
--- !u!114 &11400000
MonoBehaviour:
  m_ObjectHideFlags: 0
  m_CorrespondingSourceObject: {fileID: 0}
  m_PrefabInternal: {fileID: 0}
  m_GameObject: {fileID: 0}
  m_Enabled: 1
  m_EditorHideFlags: 0
  m_Script: {fileID: 11500000, guid: b038584523e7d5d429efe246491a8457, type: 3}
  m_Name: Big Gun E
  m_EditorClassIdentifier: 
  size: 2
  isMelee: 0
  weaponSprite: {fileID: 21300010, guid: 386fc284b2a7e77499780b7d1fe14cd9, type: 3}
  name: Big Gun E
  rarity: 2
  damage: 10
  criticChance: 5
  criticDamage: 11
  ammo: {fileID: 1462716530431096, guid: ed4c1ceccc6ffe14eaa0a6f6c4ac1735, type: 2}
  fireRate: 1.2
  maxAmmo: 35
  curAmmo: 0
  reloadTime: 0.9
