%YAML 1.1
%TAG !u! tag:unity3d.com,2011:
--- !u!78 &1
TagManager:
  serializedVersion: 2
  tags:
  - Enemy
  - Item
  - HotBar
  - Spawner
  - Boss
  - BossBullet
  - Shop
  - HUD
  - Cursor
  - Spikes
  - Wall
  - Effect Canvas
  - TooltipElement
  - MageCircle
  - Enemy Bullet
  - Camera Holder
  - BossLifeBar
  - Right
  - Left
  layers:
  - Default
  - TransparentFX
  - Ignore Raycast
  - 
  - Water
  - UI
  - 
  - 
  - Enemy
  - Cursor
  - Player
  - Obstacles
  - 
  - 
  - 
  - 
  - 
  - 
  - 
  - 
  - 
  - 
  - 
  - 
  - 
  - 
  - 
  - 
  - 
  - 
  - 
  - 
  m_SortingLayers:
  - name: Default
    uniqueID: 0
    locked: 0
  - name: Arena
    uniqueID: 2402560759
    locked: 0
  - name: Itens
    uniqueID: 2664949161
    locked: 0
  - name: Enemies
    uniqueID: 328374333
    locked: 0
  - name: Player
    uniqueID: 2179825893
    locked: 0
  - name: Wall
    uniqueID: 967020721
    locked: 0
  - name: UI
    uniqueID: 1395551447
    locked: 0
  - name: Cursor
    uniqueID: 1541939571
    locked: 0
