%YAML 1.1
%TAG !u! tag:unity3d.com,2011:
--- !u!114 &11400000
MonoBehaviour:
  m_ObjectHideFlags: 0
  m_CorrespondingSourceObject: {fileID: 0}
  m_PrefabInternal: {fileID: 0}
  m_GameObject: {fileID: 0}
  m_Enabled: 1
  m_EditorHideFlags: 0
  m_Script: {fileID: 11500000, guid: b8c93ca9cb91d7a49a84480959b23aa8, type: 3}
  m_Name: Candy Sword R
  m_EditorClassIdentifier: 
  size: 1.8
  isMelee: 1
  weaponSprite: {fileID: 21300000, guid: 386fc284b2a7e77499780b7d1fe14cd9, type: 3}
  name: Candy Sword R
  rarity: 1
  damage: 6
  criticChance: 5
  criticDamage: 7
  attackSpeed: 0.5
  attackRange: 1.25
  attackAnim: {fileID: 0}
