%YAML 1.1
%TAG !u! tag:unity3d.com,2011:
--- !u!114 &11400000
MonoBehaviour:
  m_ObjectHideFlags: 0
  m_CorrespondingSourceObject: {fileID: 0}
  m_PrefabInternal: {fileID: 0}
  m_GameObject: {fileID: 0}
  m_Enabled: 1
  m_EditorHideFlags: 0
  m_Script: {fileID: 11500000, guid: b8c93ca9cb91d7a49a84480959b23aa8, type: 3}
  m_Name: Fire Sword R
  m_EditorClassIdentifier: 
  size: 2.2
  isMelee: 1
  weaponSprite: {fileID: 21300004, guid: d5fdce80efd189e4593e62c9b8c6203e, type: 3}
  name: Fire Sword R
  rarity: 1
  damage: 11
  criticChance: 7
  criticDamage: 13
  attackSpeed: 0.8
  attackRange: 2
  attackAnim: {fileID: 0}
